Penguin data: PCA & Biplots
…
Take a peek at the tibble:

peng

## # A tibble: 342 x 7
##    species island    culmen_length culmen_depth flipper_length body_mass sex   
##    <fct>   <fct>             <dbl>        <dbl>          <dbl>     <dbl> <fct> 
##  1 Adelie  Torgersen          39.1         18.7            181      3750 MALE  
##  2 Adelie  Torgersen          39.5         17.4            186      3800 FEMALE
##  3 Adelie  Torgersen          40.3         18              195      3250 FEMALE
##  4 Adelie  Torgersen          36.7         19.3            193      3450 FEMALE
##  5 Adelie  Torgersen          39.3         20.6            190      3650 MALE  
##  6 Adelie  Torgersen          38.9         17.8            181      3625 FEMALE
##  7 Adelie  Torgersen          39.2         19.6            195      4675 MALE  
##  8 Adelie  Torgersen          34.1         18.1            193      3475 <NA>  
##  9 Adelie  Torgersen          42           20.2            190      4250 <NA>  
## 10 Adelie  Torgersen          37.8         17.1            186      3300 <NA>  
## # ... with 332 more rows
…
